<?xml version="1.0" encoding="UTF-8" standalone="no"?>
<!DOCTYPE svg PUBLIC "-//W3C//DTD SVG 1.1//EN"
 "http://www.w3.org/Graphics/SVG/1.1/DTD/svg11.dtd">
<!-- Generated by graphviz version 2.28.0 (20121128.0125)
 -->
<!-- Title: models_diagram Pages: 1 -->
<svg width="574pt" height="166pt"
 viewBox="0.00 0.00 574.00 166.00" xmlns="http://www.w3.org/2000/svg" xmlns:xlink="http://www.w3.org/1999/xlink">
<g id="graph1" class="graph" transform="scale(1 1) rotate(0) translate(4 162)">
<title>models_diagram</title>
<polygon fill="white" stroke="white" points="-4,5 -4,-162 571,-162 571,5 -4,5"/>
<!-- _diagram_info -->
<g id="node1" class="node"><title>_diagram_info</title>
<text text-anchor="start" x="7.31226" y="-141" font-family="Times,serif" font-size="13.00">Models diagram</text>
<text text-anchor="start" x="7.31226" y="-125.4" font-family="Times,serif" font-size="13.00">Date: Mar 07 2013 &#45; 19:37</text>
<text text-anchor="start" x="7.31226" y="-109.8" font-family="Times,serif" font-size="13.00">Migration version: 20130206194341</text>
<text text-anchor="start" x="7.31226" y="-94.2" font-family="Times,serif" font-size="13.00">Generated by RailRoady 1.1.0</text>
<text text-anchor="start" x="7.31226" y="-78.6" font-family="Times,serif" font-size="13.00">http://railroady.prestonlee.com</text>
</g>
<!-- Course -->
<g id="node2" class="node"><title>Course</title>
<ellipse fill="none" stroke="black" cx="263" cy="-115" rx="38.0929" ry="18"/>
<text text-anchor="middle" x="263" y="-109.4" font-family="Times,serif" font-size="14.00">Course</text>
</g>
<!-- Tutor -->
<g id="node5" class="node"><title>Tutor</title>
<ellipse fill="none" stroke="black" cx="263" cy="-18" rx="32.2349" ry="18"/>
<text text-anchor="middle" x="263" y="-12.4" font-family="Times,serif" font-size="14.00">Tutor</text>
</g>
<!-- Course&#45;&gt;Tutor -->
<g id="edge2" class="edge"><title>Course&#45;&gt;Tutor</title>
<path fill="none" stroke="#277031" d="M263,-86.1148C263,-73.6442 263,-58.9856 263,-46.5542"/>
<polygon fill="#277031" stroke="#277031" points="263,-86.5755 258.5,-96.5755 263,-91.5755 263,-96.5755 263,-96.5755 263,-96.5755 263,-91.5755 267.5,-96.5756 263,-86.5755 263,-86.5755"/>
<polygon fill="#277031" stroke="#277031" points="263,-46.314 267.5,-36.314 263,-41.314 263,-36.314 263,-36.314 263,-36.314 263,-41.314 258.5,-36.314 263,-46.314 263,-46.314"/>
</g>
<!-- Review -->
<g id="node3" class="node"><title>Review</title>
<ellipse fill="none" stroke="black" cx="360" cy="-115" rx="40.303" ry="18"/>
<text text-anchor="middle" x="360" y="-109.4" font-family="Times,serif" font-size="14.00">Review</text>
</g>
<!-- Timespan -->
<g id="node4" class="node"><title>Timespan</title>
<polygon fill="none" stroke="black" points="489.043,-133 418.957,-133 418.957,-97 489.043,-97 489.043,-133"/>
<text text-anchor="middle" x="454" y="-109.4" font-family="Times,serif" font-size="14.00">Timespan</text>
</g>
<!-- User -->
<g id="node6" class="node"><title>User</title>
<ellipse fill="none" stroke="black" cx="537" cy="-115" rx="28.9087" ry="18"/>
<text text-anchor="middle" x="537" y="-109.4" font-family="Times,serif" font-size="14.00">User</text>
</g>
</g>
</svg>
